^D:\PROGRAMMING\C++\GIT\OPENGL-POSTPROCESSING\GLPOSTPROCESS\GLPOSTPROCESS\MAIN.CPP
/c /ZI /nologo /W3 /WX- /diagnostics:classic /sdl /Od /D _MBCS /Gm /EHsc /RTC1 /MDd /GS /fp:precise /Zc:wchar_t /Zc:forScope /Zc:inline /Fo"X64\DEBUG\\" /Fd"X64\DEBUG\VC141.PDB" /Gd /TP D:\PROGRAMMING\C++\GIT\OPENGL-POSTPROCESSING\GLPOSTPROCESS\GLPOSTPROCESS\MAIN.CPP
^D:\PROGRAMMING\C++\GIT\OPENGL-POSTPROCESSING\GLPOSTPROCESS\GLPOSTPROCESS\TINY_OBJ_LOADER.CPP
/c /ZI /nologo /W3 /WX- /diagnostics:classic /sdl /Od /D _MBCS /Gm /EHsc /RTC1 /MDd /GS /fp:precise /Zc:wchar_t /Zc:forScope /Zc:inline /Fo"X64\DEBUG\\" /Fd"X64\DEBUG\VC141.PDB" /Gd /TP D:\PROGRAMMING\C++\GIT\OPENGL-POSTPROCESSING\GLPOSTPROCESS\GLPOSTPROCESS\TINY_OBJ_LOADER.CPP
^D:\PROGRAMMING\C++\GIT\OPENGL-POSTPROCESSING\GLPOSTPROCESS\GLPOSTPROCESS\PROGRAM.CPP
/c /ZI /nologo /W3 /WX- /diagnostics:classic /sdl /Od /D _MBCS /Gm /EHsc /RTC1 /MDd /GS /fp:precise /Zc:wchar_t /Zc:forScope /Zc:inline /Fo"X64\DEBUG\\" /Fd"X64\DEBUG\VC141.PDB" /Gd /TP D:\PROGRAMMING\C++\GIT\OPENGL-POSTPROCESSING\GLPOSTPROCESS\GLPOSTPROCESS\PROGRAM.CPP
^D:\PROGRAMMING\C++\GIT\OPENGL-POSTPROCESSING\GLPOSTPROCESS\GLPOSTPROCESS\SHADER.CPP
/c /ZI /nologo /W3 /WX- /diagnostics:classic /sdl /Od /D _MBCS /Gm /EHsc /RTC1 /MDd /GS /fp:precise /Zc:wchar_t /Zc:forScope /Zc:inline /Fo"X64\DEBUG\\" /Fd"X64\DEBUG\VC141.PDB" /Gd /TP D:\PROGRAMMING\C++\GIT\OPENGL-POSTPROCESSING\GLPOSTPROCESS\GLPOSTPROCESS\SHADER.CPP
^D:\PROGRAMMING\C++\GIT\OPENGL-POSTPROCESSING\GLPOSTPROCESS\GLPOSTPROCESS\TINY_OBJ_LOADER.CC
/c /ZI /nologo /W3 /WX- /diagnostics:classic /sdl /Od /D _MBCS /Gm /EHsc /RTC1 /MDd /GS /fp:precise /Zc:wchar_t /Zc:forScope /Zc:inline /Fo"X64\DEBUG\\" /Fd"X64\DEBUG\VC141.PDB" /Gd /TP D:\PROGRAMMING\C++\GIT\OPENGL-POSTPROCESSING\GLPOSTPROCESS\GLPOSTPROCESS\TINY_OBJ_LOADER.CC
