^D:\PROGRAMMING\C++\GIT\OPENGL-POSTPROCESSING\GLPOSTPROCESS\GLPOSTPROCESS\MAIN.CPP
C:\WINDOWS\GLOBALIZATION\SORTING\SORTDEFAULT.NLS
C:\PROGRAM FILES (X86)\MICROSOFT VISUAL STUDIO\2017\COMMUNITY\VC\TOOLS\MSVC\14.11.25503\BIN\HOSTX86\X86\1033\CLUI.DLL
C:\WINDOWS\SYSTEM32\TZRES.DLL
D:\PROGRAMMING\C++\LIBRARIES\GLFW-3.2.1\INCLUDE\GLFW\GLFW3.H
C:\PROGRAM FILES (X86)\WINDOWS KITS\10\INCLUDE\10.0.15063.0\UCRT\STDDEF.H
C:\PROGRAM FILES (X86)\WINDOWS KITS\10\INCLUDE\10.0.15063.0\UCRT\CORECRT.H
C:\PROGRAM FILES (X86)\MICROSOFT VISUAL STUDIO\2017\COMMUNITY\VC\TOOLS\MSVC\14.11.25503\INCLUDE\VCRUNTIME.H
C:\PROGRAM FILES (X86)\MICROSOFT VISUAL STUDIO\2017\COMMUNITY\VC\TOOLS\MSVC\14.11.25503\INCLUDE\SAL.H
C:\PROGRAM FILES (X86)\MICROSOFT VISUAL STUDIO\2017\COMMUNITY\VC\TOOLS\MSVC\14.11.25503\INCLUDE\CONCURRENCYSAL.H
C:\PROGRAM FILES (X86)\MICROSOFT VISUAL STUDIO\2017\COMMUNITY\VC\TOOLS\MSVC\14.11.25503\INCLUDE\VADEFS.H
C:\PROGRAM FILES (X86)\MICROSOFT VISUAL STUDIO\2017\COMMUNITY\VC\TOOLS\MSVC\14.11.25503\INCLUDE\STDINT.H
C:\PROGRAM FILES (X86)\WINDOWS KITS\10\INCLUDE\10.0.15063.0\UM\GL\GL.H
C:\PROGRAM FILES (X86)\WINDOWS KITS\10\INCLUDE\10.0.15063.0\SHARED\WINAPIFAMILY.H
C:\PROGRAM FILES (X86)\WINDOWS KITS\10\INCLUDE\10.0.15063.0\SHARED\WINPACKAGEFAMILY.H
